{
  "info": {
    "count": 3,
    "total": 15,
    "next": "https://rickandmortyapi.com/api/character/?page=2",
    "prev": ""
  },
  "results": [
    {
      "id": 1,
      "name": "Rick Sanchez",
      "image": "https://rickandmortyapi.com/api/character/avatar/1.jpeg"
    },
    {
      "id": 2,
      "name": "Morty Smith",
      "image": "https://rickandmortyapi.com/api/character/avatar/2.jpeg"
    },
    {
      "id": 3,
      "name": "Summer Smith",
      "image": "https://rickandmortyapi.com/api/character/avatar/3.jpeg"
    }
  ]
}
